name,second_name,group_title,book_title,subject_title,lesson_title,mark_value
Harry,Potter,Gryffindor,Defence magic,Astronomy,Monday 8.00,Outstanding
George,Washington,Gryffindor,Offence magic,Astronomy,Monday 8.00,Exceeds Expectations
Harry,Potter,Gryffindor,Heal magic,Biology,Tuesday 19.00,Outstanding
Harry,Potter,Gryffindor,Curse magic,Astronomy,Monday 8.00,Outstanding
